[
    {
        "title" : "Swords and Ravens",
        "img":"",
        "description":"An online format for the Game of Thrones Boardgame",
        "languages":[
            "TypeScript",
            "Python"
        ],
        "technologies":[
            "React",
            "Bootstrap",
            "Docker",
            "Django"
        ],
        "git":[
            {
                "link":"https://github.com/Longwelwind/swords-and-ravens",
                "name":"Github"
            },
            {
                "link":"https://github.com/Longwelwind/swords-and-ravens/pulls?q=is%3Apr+author%3ASkeptic-Robot+",
                "name":"My PRs"
            }
        ],
        "link":"https://swordsandravens.net/",
        "hasRepo":true,
        "hasImg":false
    },
    {
        "title" : "Pathfinder 2e Foundry System",
        "img":"",
        "description":"An implementation of the Pathfinder 2e rpg system in foundry",
        "languages":[
            "TypeScript",
            "HTML",
            "CSS/SCSS"
        ],
        "technologies":[
            "NodeJS"
        ],
        "git":[
            {
                "link":"https://github.com/foundryvtt/pf2e",
                "name":"Github"
            }
        ],
        "link":"https://foundryvtt.com/packages/pf2e",
        "hasRepo":true,
        "hasImg":false
    }
]